{
"code": 200,
"meta": {
"pagination": {
"total": 209,
"pages": 11,
"page": 1,
"limit": 20
}
},
"data": [
{
"id": 1,
"name": "Awesome Aluminum Watch",
"description": "Quisquam mollitia tantum depromo tamisium vilitas repellat sordeo verto ventito modi terebro vulariter asporto amoveo beneficium occaecati amissio speciosus a conforto vigilo esse animi et pectus ara qui claustrum sed provident calco deleniti capto comedo amiculum accusator centum et reiciendis confido allatus sopor tunc aestivus solum absconditus amplexus copia depulso bibo vacuus ocer cogito talis cohors delego synagoga id strenuus abeo summisse.",
"image": "https://loremflickr.com/250/250",
"price": "37303.65",
"discount_amount": "11937.06",
"status": true,
"categories": [
{
"id": 11,
"name": "Garden \u0026 Books"
},
{
"id": 14,
"name": "Tools, Kids \u0026 Computers"
}
]
},
{
"id": 2,
"name": "Incredible Paper Wallet",
"description": "Defero comptus universe tabgo cotidie surculus velit teres uter cibus vitae theatrum id vigilo coniecto spoliatio quos suffoco quia brevis curso pauper sumo velum culpo autem aut alo terminatio ambitus tero candidus varius perspiciatis dignissimos viridis accedo defaeco trucido ars aut aptus aut ara omnis.",
"image": "https://loremflickr.com/250/250",
"price": "14746.4",
"discount_amount": "7073.64",
"status": true,
"categories": [
{
"id": 6,
"name": "Home, Garden \u0026 Tools"
},
{
"id": 3,
"name": "Movies \u0026 Jewelry"
}
]
},
{
"id": 3,
"name": "Incredible Rubber Knife",
"description": "Varietas accipio tego vel reprehenderit ademptio acerbitas titulus termes et sublime et adaugeo aut triginta atque cupio umquam tibi vicissitudo tametsi capto concido considero valeo vulgaris demens et collum commodo crinis villa tepesco nesciunt vereor comprehendo depulso adsidue caelestis conscendo placeat adulescens adulatio copiose tutis varius bene aggredior sunt supellex tabula.",
"image": "https://loremflickr.com/250/250",
"price": "33688.02",
"discount_amount": "29188.33",
"status": true,
"categories": [
{
"id": 13,
"name": "Movies \u0026 Clothing"
},
{
"id": 1,
"name": "Sports \u0026 Beauty"
},
{
"id": 9,
"name": "Sports \u0026 Health"
},
{
"id": 5,
"name": "Electronics \u0026 Clothing"
},
{
"id": 4,
"name": "Movies \u0026 Shoes"
},
{
"id": 12,
"name": "Tools"
}
]
},
{
"id": 4,
"name": "Incredible Cotton Pants",
"description": "Eum tripudio patria amaritudo titulus tot curis aperte tenax pecunia quia quasi theatrum usitas tollo quaerat defungo comis vel annus dens voluptatem dolorem depereo cilicium esse ambitus spes quos defero taedium deprecator vobis ut tabgo coepi capio vomer nulla demitto sonitus conforto colloco magni suscipio acerbitas artificiose uter consectetur apostolus vaco aegrus acer.",
"image": "https://loremflickr.com/250/250",
"price": "34136.03",
"discount_amount": "1547.11",
"status": true,
"categories": [
{
"id": 6,
"name": "Home, Garden \u0026 Tools"
},
{
"id": 18,
"name": "Grocery \u0026 Sports"
}
]
},
{
"id": 5,
"name": "Durable Copper Hat",
"description": "Omnis tremo voluptatibus aggredior denuncio subseco depromo sufficio accusamus volva voluptatem cognomen suffragium est thalassinus admoneo apostolus trucido volup quis damno tergum cervus voluptates demens curis vere perspiciatis autus celebrer tenus alo vero tepesco ut sed.",
"image": "https://loremflickr.com/250/250",
"price": "5715.92",
"discount_amount": "2005.65",
"status": true,
"categories": [
{
"id": 6,
"name": "Home, Garden \u0026 Tools"
},
{
"id": 8,
"name": "Books, Health \u0026 Clothing"
},
{
"id": 13,
"name": "Movies \u0026 Clothing"
},
{
"id": 11,
"name": "Garden \u0026 Books"
},
{
"id": 1,
"name": "Sports \u0026 Beauty"
}
]
},
{
"id": 6,
"name": "Enormous Cotton Wallet",
"description": "Suspendo thesaurus aegrus vitium virgo minima sed comprehendo impedit perferendis pecunia validus magnam alo certo nulla communis valetudo aestas pauper colloco adiuvo suadeo abutor sustineo culpa arcus vapulus asporto suasoria vehemens uter tui villa optio substantia doloremque amo textilis exercitationem avarus tredecim corrigo conforto quas commemoro conatus turpis crebro tricesimus autem aetas.",
"image": "https://loremflickr.com/250/250",
"price": "33051.41",
"discount_amount": "1847.99",
"status": true,
"categories": [
{
"id": 1,
"name": "Sports \u0026 Beauty"
},
{
"id": 12,
"name": "Tools"
},
{
"id": 4,
"name": "Movies \u0026 Shoes"
},
{
"id": 15,
"name": "Music \u0026 Baby"
},
{
"id": 16,
"name": "Movies"
},
{
"id": 3,
"name": "Movies \u0026 Jewelry"
}
]
},
{
"id": 7,
"name": "Gorgeous Bronze Bottle",
"description": "Degero vita est cogito cum vitiosus mollitia attonbitus sunt cauda atrocitas balbus tepesco minima viriliter qui deorsum clam abduco demonstro et verbum acervus advenio talis quasi studio viduo vis voro vetus depromo unus voluptas adinventitias adfectus pecto.",
"image": "https://loremflickr.com/250/250",
"price": "33516.43",
"discount_amount": "5608.86",
"status": true,
"categories": [
{
"id": 8,
"name": "Books, Health \u0026 Clothing"
},
{
"id": 9,
"name": "Sports \u0026 Health"
},
{
"id": 15,
"name": "Music \u0026 Baby"
}
]
},
{
"id": 8,
"name": "Practical Granite Bag",
"description": "Ultra annus theatrum autem uterque contabesco labore patrocinor vehemens colligo vinco aegrus tertius viriliter verbera adopto est auctor tonsor confugo universe sequi et sumo bis vaco caute ulterius aliquam ut impedit.",
"image": "https://loremflickr.com/250/250",
"price": "23901.33",
"discount_amount": "3458.91",
"status": true,
"categories": [
{
"id": 5,
"name": "Electronics \u0026 Clothing"
},
{
"id": 1,
"name": "Sports \u0026 Beauty"
},
{
"id": 17,
"name": "Outdoors, Computers \u0026 Sports"
},
{
"id": 13,
"name": "Movies \u0026 Clothing"
}
]
},
{
"id": 9,
"name": "Rustic Marble Coat",
"description": "Casso aeneus in studio altus bestia amor deleo sit absque vapulus laudantium claro calco tristis theologus curso porro acquiro assentator deorsum colloco compello officiis tabernus aurum thema stillicidium tunc cenaculum degusto adamo verbum umquam ademptio ut causa deprecator arceo trucido ulterius ea damnatio ventito suppono concido deputo adfero solutio curriculum subito talis doloremque excepturi aut depereo corporis accusantium odio vero pecto velit damno et utroque tergiversatio.",
"image": "https://loremflickr.com/250/250",
"price": "29723.91",
"discount_amount": "14245.75",
"status": true,
"categories": [
{
"id": 9,
"name": "Sports \u0026 Health"
},
{
"id": 4,
"name": "Movies \u0026 Shoes"
},
{
"id": 3,
"name": "Movies \u0026 Jewelry"
},
{
"id": 6,
"name": "Home, Garden \u0026 Tools"
}
]
},
{
"id": 10,
"name": "Lightweight Wool Shoes",
"description": "Appello voluptatem clam consequatur alius deorsum audentia tamdiu adulescens tremo vito eum decor fugiat averto qui tutamen a tandem omnis tardus quae capio conspergo comis currus suspendo adversus tripudio abstergo dignissimos nam crebro demitto occaecati vorax absum vinum contego atqui paulatim suasoria versus dolorum angelus avoco coadunatio commodi quam conqueror corporis fuga argumentum vel tabernus apud in admitto subseco aggero ulciscor abutor ullus aperio maiores summisse libero.",
"image": "https://loremflickr.com/250/250",
"price": "8936.79",
"discount_amount": "7437.7",
"status": true,
"categories": [
{
"id": 16,
"name": "Movies"
},
{
"id": 6,
"name": "Home, Garden \u0026 Tools"
},
{
"id": 10,
"name": "Baby, Home \u0026 Grocery"
},
{
"id": 3,
"name": "Movies \u0026 Jewelry"
}
]
},
{
"id": 11,
"name": "Gorgeous Iron Lamp",
"description": "Sum angustus sunt antea denique terebro in tibi vae recusandae coadunatio laborum tardus audax stips esse surculus cometes adopto statua suggero vicissitudo apostolus celer complectus turpis annus comparo perspiciatis delinquo succurro utpote omnis sordeo porro tutis taedium voluptatem ipsa acerbitas suscipio consuasor aveho tubineus cohaero admitto et voluptas nihil aliqua stella spes accusator sonitus caute bis vomito vitiosus audeo uxor aspernatur fugiat tui.",
"image": "https://loremflickr.com/250/250",
"price": "3026.6",
"discount_amount": "157.57",
"status": true,
"categories": [
{
"id": 9,
"name": "Sports \u0026 Health"
},
{
"id": 4,
"name": "Movies \u0026 Shoes"
},
{
"id": 3,
"name": "Movies \u0026 Jewelry"
},
{
"id": 7,
"name": "Industrial \u0026 Sports"
}
]
},
{
"id": 12,
"name": "Lightweight Granite Bottle",
"description": "Carpo sunt explicabo tollo vero ultra aut colo acidus solum quasi substantia natus caterva curto beneficium minus avaritia tam vulticulus non audax vesica adversus aetas ait blandior debilito adimpleo id stella undique sed vobis tamen capillus suus tabella vester in chirographum carmen centum vulgus sophismata ut debitis voluptatem vulgo tamisium voluptatum conicio uterque convoco nostrum et audio callide aperte ipsam versus amaritudo.",
"image": "https://loremflickr.com/250/250",
"price": "21170.79",
"discount_amount": "2886.15",
"status": true,
"categories": [
{
"id": 16,
"name": "Movies"
},
{
"id": 13,
"name": "Movies \u0026 Clothing"
}
]
},
{
"id": 13,
"name": "Gorgeous Aluminum Plate",
"description": "Torrens virgo veniam coniecto carpo accendo adfero demoror vapulus inventore aestivus at qui voluptatem voro fugiat admoveo umerus ipsum vereor vomer aut amitto creta molestiae angulus temeritas comptus adultus anser comprehendo caterva demulceo tristis autem patior cubitum maiores triumphus adulescens deprimo desipio vulnus omnis summa verto currus degero corporis vinum peior cenaculum demergo officia uxor.",
"image": "https://loremflickr.com/250/250",
"price": "36256.99",
"discount_amount": "25357.09",
"status": true,
"categories": [
{
"id": 4,
"name": "Movies \u0026 Shoes"
},
{
"id": 1,
"name": "Sports \u0026 Beauty"
},
{
"id": 16,
"name": "Movies"
},
{
"id": 5,
"name": "Electronics \u0026 Clothing"
},
{
"id": 17,
"name": "Outdoors, Computers \u0026 Sports"
},
{
"id": 8,
"name": "Books, Health \u0026 Clothing"
}
]
},
{
"id": 14,
"name": "Durable Marble Shirt",
"description": "Quo venio tam adfectus clamo voluptas anser delego earum valde testimonium adflicto cum peior ipsum addo validus unus aegrus apto amaritudo absens turpis vis coruscus color certe cunctatio venustas ipsam averto dolores caterva fuga angustus via creber cursim cognomen claro voluptate aufero veniam est tollo virtus dolores.",
"image": "https://loremflickr.com/250/250",
"price": "2438.37",
"discount_amount": "728.27",
"status": true,
"categories": [
{
"id": 15,
"name": "Music \u0026 Baby"
},
{
"id": 16,
"name": "Movies"
},
{
"id": 9,
"name": "Sports \u0026 Health"
},
{
"id": 13,
"name": "Movies \u0026 Clothing"
}
]
},
{
"id": 15,
"name": "Synergistic Leather Shirt",
"description": "Vulariter demergo vel celer civitas terreo considero earum socius cognatus tumultus adficio qui sonitus suffoco defigo tamquam vesper ademptio spiculum viridis thymum ustulo credo ut quis voluptates usitas.",
"image": "https://loremflickr.com/250/250",
"price": "26262.94",
"discount_amount": "23299.17",
"status": true,
"categories": [
{
"id": 1,
"name": "Sports \u0026 Beauty"
},
{
"id": 15,
"name": "Music \u0026 Baby"
},
{
"id": 18,
"name": "Grocery \u0026 Sports"
},
{
"id": 17,
"name": "Outdoors, Computers \u0026 Sports"
},
{
"id": 14,
"name": "Tools, Kids \u0026 Computers"
}
]
},
{
"id": 16,
"name": "Enormous Rubber Pants",
"description": "Capillus laborum curto vomica sumptus deorsum conservo aegre spargo civitas desidero adflicto aut ut nisi audio maiores sumo tamen alioqui adimpleo fuga demulceo turpe cohors et adeo sodalitas copia administratio toties contigo vae similique complectus centum cohibeo demergo uter aveho statim terminatio paulatim.",
"image": "https://loremflickr.com/250/250",
"price": "3711.9",
"discount_amount": "1758.27",
"status": true,
"categories": [
{
"id": 7,
"name": "Industrial \u0026 Sports"
},
{
"id": 14,
"name": "Tools, Kids \u0026 Computers"
},
{
"id": 5,
"name": "Electronics \u0026 Clothing"
},
{
"id": 16,
"name": "Movies"
},
{
"id": 11,
"name": "Garden \u0026 Books"
}
]
},
{
"id": 17,
"name": "Rustic Rubber Table",
"description": "Inventore adhuc terminatio verus delectatio dolor minus avarus textilis suppono cubitum patria veniam acies adaugeo avaritia clementia verecundia validus vallum arca combibo debeo theatrum autem agnosco reiciendis appositus aiunt ut subnecto cilicium quibusdam atrox vel adultus omnis demo tabgo fugiat adhaero cognatus inflammatio quisquam verbera autem aperio pariatur doloremque.",
"image": "https://loremflickr.com/250/250",
"price": "15331.77",
"discount_amount": "6478.77",
"status": true,
"categories": [
{
"id": 8,
"name": "Books, Health \u0026 Clothing"
},
{
"id": 1,
"name": "Sports \u0026 Beauty"
},
{
"id": 16,
"name": "Movies"
},
{
"id": 14,
"name": "Tools, Kids \u0026 Computers"
},
{
"id": 7,
"name": "Industrial \u0026 Sports"
}
]
},
{
"id": 18,
"name": "Intelligent Plastic Plate",
"description": "Administratio tabesco praesentium qui desolo statua vis studio delego suscipio toties super quia vilis crastinus odio cupiditate altus annus supplanto tricesimus vos tollo pariatur adnuo tergeo carpo ceno apparatus vel turpis decumbo comminor aggredior calcar considero caste cicuta deleo numquam placeat solio aut aeternus ultra quis et vulticulus est vinco ea cunabula temeritas curto spero vero usitas vix quasi textilis.",
"image": "https://loremflickr.com/250/250",
"price": "32846.44",
"discount_amount": "6121.1",
"status": true,
"categories": [
{
"id": 7,
"name": "Industrial \u0026 Sports"
},
{
"id": 16,
"name": "Movies"
},
{
"id": 18,
"name": "Grocery \u0026 Sports"
},
{
"id": 15,
"name": "Music \u0026 Baby"
},
{
"id": 8,
"name": "Books, Health \u0026 Clothing"
},
{
"id": 13,
"name": "Movies \u0026 Clothing"
}
]
},
{
"id": 19,
"name": "Gorgeous Copper Lamp",
"description": "Damnatio suus demonstro depulso villa colo verbum vinitor beneficium dolorum ut sublime qui articulus aspernatur canto conturbo quo uredo explicabo accedo vel verumtamen amissio atqui adfectus ante volva depromo delibero surgo ager conspergo testimonium tamisium consequatur assentator.",
"image": "https://loremflickr.com/250/250",
"price": "33138.66",
"discount_amount": "3180.85",
"status": true,
"categories": [
{
"id": 7,
"name": "Industrial \u0026 Sports"
},
{
"id": 12,
"name": "Tools"
}
]
},
{
"id": 20,
"name": "Heavy Duty Granite Watch",
"description": "Sumptus triduana deinde templum tibi carpo vigor certo adamo sono auxilium abscido cultura esse teres contra et aestus degenero adsum aut avaritia vapulus defluo complectus viriliter aut vestigium clarus ut solio repellendus damno cornu voro varius ocer voluptatum consequatur antea conqueror comminor ustulo omnis tabula absconditus crinis ventito in ullam voluptatem acer amicitia stella ago timor turpe apud cum doloribus quo cresco cohibeo incidunt sint avoco summa asporto.",
"image": "https://loremflickr.com/250/250",
"price": "5866.02",
"discount_amount": "915.31",
"status": true,
"categories": [
{
"id": 4,
"name": "Movies \u0026 Shoes"
}
]
}
]
}