{
"code": 200,
"meta": {
"pagination": {
"total": 1963,
"pages": 99,
"page": 1,
"limit": 20
}
},
"data": [
{
"id": 1,
"user_id": 1,
"title": "Versus stella civis vaco sumo cum catena tabgo acsi tenetur adaugeo.",
"completed": false,
"created_at": "2021-01-19T03:50:03.639+05:30",
"updated_at": "2021-01-19T03:50:03.639+05:30"
},
{
"id": 2,
"user_id": 1,
"title": "Sortitus tubineus crinis sed dignissimos centum expedita eius vel consuasor unde.",
"completed": true,
"created_at": "2021-01-19T03:50:03.642+05:30",
"updated_at": "2021-01-19T03:50:03.642+05:30"
},
{
"id": 3,
"user_id": 4,
"title": "Avaritia adopto vestigium vetus aegre veritatis vilis sodalitas appello stillicidium quia.",
"completed": false,
"created_at": "2021-01-19T03:50:03.676+05:30",
"updated_at": "2021-01-19T03:50:03.676+05:30"
},
{
"id": 4,
"user_id": 4,
"title": "Talio adeo velit degusto audeo curatio commodo vivo thalassinus valetudo terebro.",
"completed": true,
"created_at": "2021-01-19T03:50:03.678+05:30",
"updated_at": "2021-01-19T03:50:03.678+05:30"
},
{
"id": 5,
"user_id": 4,
"title": "Aggredior consectetur campana cetera tubineus pel basium vulgus cedo cogo.",
"completed": false,
"created_at": "2021-01-19T03:50:03.68+05:30",
"updated_at": "2021-01-19T03:50:03.68+05:30"
},
{
"id": 8,
"user_id": 7,
"title": "Tergum vobis villa sapiente cena quasi degero abscido volup.",
"completed": true,
"created_at": "2021-01-19T03:50:03.709+05:30",
"updated_at": "2021-01-19T03:50:03.709+05:30"
},
{
"id": 9,
"user_id": 7,
"title": "Qui certus volaticus casus vulgaris ait sumptus explicabo.",
"completed": false,
"created_at": "2021-01-19T03:50:03.711+05:30",
"updated_at": "2021-01-19T03:50:03.711+05:30"
},
{
"id": 10,
"user_id": 8,
"title": "Admoneo aveho absque ver varietas deleniti.",
"completed": false,
"created_at": "2021-01-19T03:50:03.717+05:30",
"updated_at": "2021-01-19T03:50:03.717+05:30"
},
{
"id": 11,
"user_id": 8,
"title": "Dedecor vetus ultra clam facere assumenda cilicium verumtamen soluta.",
"completed": false,
"created_at": "2021-01-19T03:50:03.718+05:30",
"updated_at": "2021-01-19T03:50:03.718+05:30"
},
{
"id": 12,
"user_id": 8,
"title": "Sol maxime caste uterque tergo tubineus vitium charisma nisi.",
"completed": false,
"created_at": "2021-01-19T03:50:03.72+05:30",
"updated_at": "2021-01-19T03:50:03.72+05:30"
},
{
"id": 13,
"user_id": 9,
"title": "Appello adsidue deputo sursum cur voluptatem.",
"completed": true,
"created_at": "2021-01-19T03:50:03.731+05:30",
"updated_at": "2021-01-19T03:50:03.731+05:30"
},
{
"id": 14,
"user_id": 9,
"title": "Cupiditate dicta colloco casus voluptatem conculco cauda antea spoliatio artificiose convoco.",
"completed": true,
"created_at": "2021-01-19T03:50:03.733+05:30",
"updated_at": "2021-01-19T03:50:03.733+05:30"
},
{
"id": 15,
"user_id": 9,
"title": "Traho dapifer compono mollitia defleo aliqua.",
"completed": true,
"created_at": "2021-01-19T03:50:03.736+05:30",
"updated_at": "2021-01-19T03:50:03.736+05:30"
},
{
"id": 16,
"user_id": 10,
"title": "Angulus velit arbor summa bellum clamo voluptatem adfero tum super.",
"completed": false,
"created_at": "2021-01-19T03:50:03.742+05:30",
"updated_at": "2021-01-19T03:50:03.742+05:30"
},
{
"id": 17,
"user_id": 10,
"title": "Abstergo sub apto damnatio animadverto.",
"completed": false,
"created_at": "2021-01-19T03:50:03.744+05:30",
"updated_at": "2021-01-19T03:50:03.744+05:30"
},
{
"id": 18,
"user_id": 10,
"title": "Basium dolorem pariatur viridis tametsi deficio patria aer.",
"completed": true,
"created_at": "2021-01-19T03:50:03.746+05:30",
"updated_at": "2021-01-19T03:50:03.746+05:30"
},
{
"id": 19,
"user_id": 11,
"title": "Valens trucido cito creator cernuus usitas tunc.",
"completed": false,
"created_at": "2021-01-19T03:50:03.756+05:30",
"updated_at": "2021-01-19T03:50:03.756+05:30"
},
{
"id": 20,
"user_id": 12,
"title": "Asporto sulum sono certe tempore vix facilis sollicito.",
"completed": true,
"created_at": "2021-01-19T03:50:03.773+05:30",
"updated_at": "2021-01-19T03:50:03.773+05:30"
},
{
"id": 21,
"user_id": 13,
"title": "Vinco caritas terror somnus calamitas clementia.",
"completed": true,
"created_at": "2021-01-19T03:50:03.785+05:30",
"updated_at": "2021-01-19T03:50:03.785+05:30"
},
{
"id": 22,
"user_id": 13,
"title": "Vilis defero audio aequitas thymbra inventore.",
"completed": false,
"created_at": "2021-01-19T03:50:03.787+05:30",
"updated_at": "2021-01-19T03:50:03.787+05:30"
}
]
}