{
"code": 200,
"meta": {
"pagination": {
"total": 1398,
"pages": 70,
"page": 1,
"limit": 20
}
},
"data": [
{
"id": 2,
"post_id": 2,
"name": "Sitara Nair",
"email": "nair_sitara@marvin-kilback.name",
"body": "Quibusdam fuga eius. Occaecati ab reiciendis. Aut natus consequuntur.",
"created_at": "2021-01-19T03:50:03.629+05:30",
"updated_at": "2021-01-19T03:50:03.629+05:30"
},
{
"id": 5,
"post_id": 5,
"name": "Subhash Saini",
"email": "subhash_saini@abbott.info",
"body": "Qui ea nam. Sit aliquid rerum. Est voluptatem maxime. Eligendi placeat est.",
"created_at": "2021-01-19T03:50:03.701+05:30",
"updated_at": "2021-01-19T03:50:03.701+05:30"
},
{
"id": 7,
"post_id": 8,
"name": "Jahnu Dwivedi",
"email": "dwivedi_jahnu@marvin.org",
"body": "Impedit dolores harum. Temporibus ipsum sed. Corrupti et ducimus.",
"created_at": "2021-01-19T03:50:03.768+05:30",
"updated_at": "2021-01-19T03:50:03.768+05:30"
},
{
"id": 8,
"post_id": 8,
"name": "Laal Bhat",
"email": "bhat_laal@littel.io",
"body": "Est illo voluptas. Qui vel eum.",
"created_at": "2021-01-19T03:50:03.771+05:30",
"updated_at": "2021-01-19T03:50:03.771+05:30"
},
{
"id": 9,
"post_id": 11,
"name": "Birjesh Bandopadhyay DO",
"email": "do_bandopadhyay_birjesh@pagac-brown.io",
"body": "Quae nobis eos. Optio ratione eum. Optio modi expedita.",
"created_at": "2021-01-19T03:50:03.804+05:30",
"updated_at": "2021-01-19T03:50:03.804+05:30"
},
{
"id": 10,
"post_id": 11,
"name": "Gemini Chattopadhyay V",
"email": "gemini_chattopadhyay_v@strosin.org",
"body": "Necessitatibus ad voluptates. Sit earum alias. Et minima eius.",
"created_at": "2021-01-19T03:50:03.807+05:30",
"updated_at": "2021-01-19T03:50:03.807+05:30"
},
{
"id": 11,
"post_id": 12,
"name": "Mr. Chinmayananda Dubashi",
"email": "dubashi_chinmayananda_mr@mayert.biz",
"body": "Nam nobis ut. Qui doloremque molestiae.",
"created_at": "2021-01-19T03:50:03.834+05:30",
"updated_at": "2021-01-19T03:50:03.834+05:30"
},
{
"id": 12,
"post_id": 14,
"name": "Sen. Rati Ganaka",
"email": "sen_ganaka_rati@ward.org",
"body": "Quibusdam aut omnis. Ex nesciunt et. Sint dicta et.",
"created_at": "2021-01-19T03:50:03.852+05:30",
"updated_at": "2021-01-19T03:50:03.852+05:30"
},
{
"id": 13,
"post_id": 15,
"name": "Brahmanandam Kapoor",
"email": "brahmanandam_kapoor@rosenbaum-pfannerstill.co",
"body": "Unde ipsam modi. Velit ea qui. Laboriosam nobis voluptatem. Et totam aspernatur.",
"created_at": "2021-01-19T03:50:03.861+05:30",
"updated_at": "2021-01-19T03:50:03.861+05:30"
},
{
"id": 14,
"post_id": 15,
"name": "Daevika Gowda",
"email": "gowda_daevika@schamberger.biz",
"body": "Ducimus voluptas quaerat. Porro quis voluptatum.",
"created_at": "2021-01-19T03:50:03.863+05:30",
"updated_at": "2021-01-19T03:50:03.863+05:30"
},
{
"id": 15,
"post_id": 16,
"name": "Ramesh Gill",
"email": "ramesh_gill@mertz-wiegand.io",
"body": "Et quibusdam sed. Similique dolor maiores.",
"created_at": "2021-01-19T03:50:03.897+05:30",
"updated_at": "2021-01-19T03:50:03.897+05:30"
},
{
"id": 16,
"post_id": 17,
"name": "Aruna Abbott",
"email": "abbott_aruna@smitham.org",
"body": "Fugiat quod et.",
"created_at": "2021-01-19T03:50:03.906+05:30",
"updated_at": "2021-01-19T03:50:03.906+05:30"
},
{
"id": 17,
"post_id": 17,
"name": "Shridevi Acharya",
"email": "shridevi_acharya@brekke.co",
"body": "Non delectus hic. Qui soluta provident.",
"created_at": "2021-01-19T03:50:03.908+05:30",
"updated_at": "2021-01-19T03:50:03.908+05:30"
},
{
"id": 18,
"post_id": 18,
"name": "Bhagavaan Namboothiri",
"email": "namboothiri_bhagavaan@johns-will.io",
"body": "Aliquam eveniet quasi. Ab culpa dolorem. Debitis quia qui.",
"created_at": "2021-01-19T03:50:03.935+05:30",
"updated_at": "2021-01-19T03:50:03.935+05:30"
},
{
"id": 20,
"post_id": 20,
"name": "Bhilangana Prajapat",
"email": "prajapat_bhilangana@hilll.co",
"body": "Sit repellendus voluptas. Adipisci nam repellat. Et odit dolore.",
"created_at": "2021-01-19T03:50:03.968+05:30",
"updated_at": "2021-01-19T03:50:03.968+05:30"
},
{
"id": 21,
"post_id": 22,
"name": "Devak Chopra DC",
"email": "devak_chopra_dc@russel.net",
"body": "Nobis error praesentium. Ut tempore officia. Ut dolorem id.",
"created_at": "2021-01-19T03:50:04.026+05:30",
"updated_at": "2021-01-19T03:50:04.026+05:30"
},
{
"id": 22,
"post_id": 23,
"name": "Dr. Chandradev Pandey",
"email": "chandradev_dr_pandey@friesen.io",
"body": "Autem a modi.",
"created_at": "2021-01-19T03:50:04.035+05:30",
"updated_at": "2021-01-19T03:50:04.035+05:30"
},
{
"id": 23,
"post_id": 23,
"name": "Nikita Malik",
"email": "nikita_malik@kovacek.co",
"body": "Aut est incidunt. Repellendus laboriosam consectetur. Accusantium quo cumque. Velit quaerat voluptate.",
"created_at": "2021-01-19T03:50:04.039+05:30",
"updated_at": "2021-01-19T03:50:04.039+05:30"
},
{
"id": 24,
"post_id": 24,
"name": "Chandira Achari",
"email": "chandira_achari@morissette.com",
"body": "Quas aut ipsa. Velit iste et. Distinctio neque et. Ducimus laudantium consequatur.",
"created_at": "2021-01-19T03:50:04.051+05:30",
"updated_at": "2021-01-19T03:50:04.051+05:30"
},
{
"id": 25,
"post_id": 24,
"name": "Dwaipayana Guneta",
"email": "dwaipayana_guneta@roberts.io",
"body": "Fugiat quam illum. Sunt similique vero. Nihil consequatur id. Sed incidunt qui.",
"created_at": "2021-01-19T03:50:04.054+05:30",
"updated_at": "2021-01-19T03:50:04.054+05:30"
}
]
}