{
"code": 200,
"meta": {
"pagination": {
"total": 760,
"pages": 38,
"page": 1,
"limit": 20
}
},
"data": [
{
"id": 1,
"product_id": 1,
"category_id": 11
},
{
"id": 2,
"product_id": 1,
"category_id": 14
},
{
"id": 3,
"product_id": 2,
"category_id": 6
},
{
"id": 4,
"product_id": 2,
"category_id": 3
},
{
"id": 5,
"product_id": 3,
"category_id": 13
},
{
"id": 6,
"product_id": 3,
"category_id": 1
},
{
"id": 7,
"product_id": 3,
"category_id": 9
},
{
"id": 8,
"product_id": 3,
"category_id": 5
},
{
"id": 9,
"product_id": 3,
"category_id": 4
},
{
"id": 10,
"product_id": 3,
"category_id": 12
},
{
"id": 11,
"product_id": 4,
"category_id": 6
},
{
"id": 12,
"product_id": 4,
"category_id": 18
},
{
"id": 13,
"product_id": 5,
"category_id": 6
},
{
"id": 14,
"product_id": 5,
"category_id": 8
},
{
"id": 15,
"product_id": 5,
"category_id": 13
},
{
"id": 16,
"product_id": 5,
"category_id": 11
},
{
"id": 17,
"product_id": 5,
"category_id": 1
},
{
"id": 18,
"product_id": 6,
"category_id": 1
},
{
"id": 19,
"product_id": 6,
"category_id": 12
},
{
"id": 20,
"product_id": 6,
"category_id": 4
}
]
}