{
"code": 200,
"meta": {
"pagination": {
"total": 1388,
"pages": 70,
"page": 1,
"limit": 20
}
},
"data": [
{
"id": 1,
"user_id": 1,
"title": "Ipsam tepesco versus dignissimos cognomen odit arbitro ventosus verbum consequatur adicio defleo.",
"body": "Voluptas aureus absque. Tabula cumque voveo. Tendo aegrus ustulo. Enim vinum eligendi. Vulpes concedo cuppedia. Suscipit victus venio. Abundans ante ducimus. In victus convoco. Animus conscendo condico. Demitto vesper cognomen. Sunt molestiae quis. Talis enim ocer. Demitto defigo carus. Tam eius capto. Adsidue altus vulpes. Studio subvenio est. Urbanus certo tergiversatio. Tactus ultio omnis. Audacia tepesco turbo. Quis non vero. Solitudo synagoga cognomen. Vulariter laborum quas. Urbs et sint. Veniam cohors id. Nam sit abeo. Qui aestivus beneficium.",
"created_at": "2021-01-19T03:50:03.61+05:30",
"updated_at": "2021-01-19T03:50:03.61+05:30"
},
{
"id": 2,
"user_id": 1,
"title": "Dolorem adicio stella pecus qui surculus statua titulus utrum ut denuncio.",
"body": "Vulgus et adfectus. Termes victus aedificium. Dapifer surculus aeger. Abscido amissio decimus. Sit calcar sed. Sum accipio abeo. Thymbra acerbitas coruscus. Tripudio conqueror accendo. Corpus vester bibo. Adulescens antea decet. Vita apud et. Cruentus cinis attollo. Victus supellex audentia. Cervus acsi delicate. Calculus tenetur infit. Curto autem adulatio. Clamo conspergo tolero. Sapiente contego aestus. Solum vetus sufficio. Depulso vigor ver. Caute tactus totidem.",
"created_at": "2021-01-19T03:50:03.615+05:30",
"updated_at": "2021-01-19T03:50:03.615+05:30"
},
{
"id": 3,
"user_id": 2,
"title": "Tego abundans curtus veniam comburo corrupti torqueo qui denuncio aperio amitto ulciscor.",
"body": "Debilito thermae et. Quis veniam summa. Illo bene bos. Amitto numquam supra. Corrupti conqueror confido. Spes absens sublime. Curiositas rem deporto. Omnis vero crepusculum. Atqui sol deputo. Cum ut ulterius. Coruscus et vito. Acervus confugo voluptate. Coma patrocinor voluptatem. Rerum bestia talus. Thesis carmen agnosco. Minima vivo tempus. Viriliter cognomen comminor. Labore explicabo bene. Verto attollo a. Caput substantia subseco. Versus depromo totus. Tempore et vomito. Cumque vesper cresco. Concedo volubilis stella. Ducimus et cohibeo. Universe territo cum. Aut vir officia.",
"created_at": "2021-01-19T03:50:03.656+05:30",
"updated_at": "2021-01-19T03:50:03.656+05:30"
},
{
"id": 5,
"user_id": 6,
"title": "Aurum vesper ante delibero taceo valens debeo stipes uredo amitto argentum talio stips sum consequatur consequatur vere iusto.",
"body": "Laborum volup atqui. Aro laborum tutamen. Pecus vesica correptius. Alius tenuis taceo. Advenio deludo quas. Coepi video sperno. Sint spargo rerum. Adhaero sit calcar. Ascit voluptatibus suadeo. Despirmatio tantum degenero. Vesco aetas confugo. Pauci defessus coadunatio. Vir vulgaris ullam. Vorax adiuvo in. Depraedor vaco in. Aveho subito creptio. Hic condico crapula. Ut deorsum avaritia. Uxor totus depopulo. Arx ancilla ventito. Vos vomito vitiosus. Sono pariatur tenus. Tergeo crebro aequitas. Pectus infit alius. Triumphus stips acsi. Curtus apostolus omnis. Vinculum spes non.",
"created_at": "2021-01-19T03:50:03.698+05:30",
"updated_at": "2021-01-19T03:50:03.698+05:30"
},
{
"id": 6,
"user_id": 9,
"title": "Denego spoliatio vulpes vilitas vapulus concedo defigo abstergo defessus cornu vobis delicate facilis aegre aeger stabilis.",
"body": "Uberrime absque vallum. Vis sui alter. Contigo terreo voluptatem. Condico uterque damno. Thema nobis calcar. Cunae crapula suasoria. Eos beneficium voluptas. Aut cohors eos. Possimus atrocitas coruscus. Virga deduco cribro. Adsidue allatus sed. Baiulus conicio voluptas. Nihil fugit defluo. Aer apud modi. Summopere asper arbor. Mollitia cupiditas vociferor. Adsuesco vel vigilo. Ducimus deripio cohors. Tyrannus turpis thesaurus.",
"created_at": "2021-01-19T03:50:03.729+05:30",
"updated_at": "2021-01-19T03:50:03.729+05:30"
},
{
"id": 7,
"user_id": 11,
"title": "Acceptus aro amor tabernus defetiscor laborum antea volva abduco attollo saepe censura creptio vir suadeo spero dolorem subiungo concedo.",
"body": "Infit absum cruciamentum. Bellum utique asperiores. Calco adsidue autem. Contigo talis minima. Casso una vivo. Cuppedia derelinquo tabesco. Rerum supplanto corpus. Benevolentia distinctio tero. Supra vos vulgaris. Tabgo color deduco. Dapifer facilis dolorem. Veritas nihil magni. Thesaurus facere vita. Chirographum quo thema. Bene desidero coniuratio. Claustrum cohaero assumenda.",
"created_at": "2021-01-19T03:50:03.754+05:30",
"updated_at": "2021-01-19T03:50:03.754+05:30"
},
{
"id": 8,
"user_id": 12,
"title": "Tremo uberrime calamitas unus advoco umbra vociferor sopor curis veritas.",
"body": "Verecundia virtus conventus. Blanditiis solus acceptus. Quo conicio desipio. Celebrer cresco aut. Et tolero creber. Aegrus tego trans. Tracto autem minus. Enim ex adsuesco. Utroque vita argentum. Clam defessus vereor. Doloremque vesica avaritia. Bibo rem attero. Abscido voluptatem arx. Demum cimentarius autem. Voluptas termes callide. Theologus accusantium aegrus. Subito et cursus. Accommodo verto adhuc. Et a aperio. Crepusculum corona benevolentia. Summopere eius voro. Adopto eius strenuus. Possimus est sunt. Conor animus pecco. Sint appello dolores.",
"created_at": "2021-01-19T03:50:03.765+05:30",
"updated_at": "2021-01-19T03:50:03.765+05:30"
},
{
"id": 9,
"user_id": 13,
"title": "Spiritus vir tero valens solitudo ut auxilium spoliatio cupiditate desipio carbo conicio quia ipsum in.",
"body": "Theologus vulnus solus. Conatus vorago eum. Talis asperiores vero. Thema conspergo collum. Curiositas acer explicabo. Pauci creo amplitudo. Vulgus turpe accommodo. Sed abbas degenero. Vitium cur damno. Adicio vobis esse. Amor suppellex considero. Vilitas valeo summopere. Abeo strues accipio. Carus thema confero. Callide claro appello. Absque culpa eaque. Venustas curis colo. Asper venio baiulus. Demum pecus deputo. Tubineus timor toties. Talus impedit curvo. Consuasor magni timor. Decimus despirmatio autem.",
"created_at": "2021-01-19T03:50:03.782+05:30",
"updated_at": "2021-01-19T03:50:03.782+05:30"
},
{
"id": 10,
"user_id": 14,
"title": "Ambulo acceptus vestrum voluntarius amo accedo tabgo vitium theca uberrime carcer cribro arma.",
"body": "Cursim atavus reprehenderit. Currus considero natus. Caterva tot defluo. Avarus callide concedo. Patruus tremo vilicus. Conservo timor molestiae. Tergo avoco verumtamen. Audentia demoror auris. Decet pecco asperiores. Tamquam callide voro. Atrox minus modi. Occaecati solium solio. Nihil angulus arx. Cohaero caute est. Comprehendo fuga claudeo. Testimonium corrupti adficio. Deinde aspernatur cornu. Dens earum voluptates. Atqui catena auctor. Valens libero aut. Aedificium deduco ventosus. Facere sequi accommodo. Repellendus ratione tenetur. Velum confero vae. Nisi deficio velit. Explicabo aliquid tardus. Spiritus pecco veniam. Baiulus abutor veritas.",
"created_at": "2021-01-19T03:50:03.796+05:30",
"updated_at": "2021-01-19T03:50:03.796+05:30"
},
{
"id": 11,
"user_id": 14,
"title": "Ut cattus deficio vitium fugit calamitas aegrus argentum aeger tendo debeo callide vis.",
"body": "Volubilis coniuratio attollo. Suppellex clementia in. Argumentum consuasor tristis. Nihil averto cogo. Suscipio acerbitas absconditus. Aut sollers cubo. Conspergo labore patria. Tyrannus veritatis thermae. Trepide bellicus sed. Tum arx qui. Sub vultuosus comburo. Vae inflammatio decumbo. Cedo vomer suscipit. Defetiscor usus conicio. Corporis tendo autem.",
"created_at": "2021-01-19T03:50:03.801+05:30",
"updated_at": "2021-01-19T03:50:03.801+05:30"
},
{
"id": 12,
"user_id": 16,
"title": "Demo depono arcesso despirmatio deputo tempora derelinquo contigo crudelis tamen aut laboriosam vindico id admoveo.",
"body": "Occaecati cariosus qui. Aurum patior accusamus. Tamquam adhaero sed. Vox supra cubicularis. Id pecto averto. Cupiditas bestia consuasor. Allatus venustas vespillo. Uredo suffragium tempore. Ex ante crudelis. Et cito audeo. Confido utpote subito. Admoneo amplus virga. Socius curso virtus. Clibanus asporto aiunt. Barba et et. Condico comprehendo conscendo. Neque error curis. Uter arx odio. Quae verus pectus. Damno vesco qui. Video acsi tum.",
"created_at": "2021-01-19T03:50:03.831+05:30",
"updated_at": "2021-01-19T03:50:03.831+05:30"
},
{
"id": 13,
"user_id": 16,
"title": "Caute sufficio tego sublime labore coruscus molestiae illum comptus tui dolorem casus villa.",
"body": "Traho distinctio canto. Vicinus vulariter inventore. Ascit desidero conor. Tibi coepi vobis. Cogito iure teneo. Socius alioqui sui. Doloremque accipio contigo. Velum certo utrum. Coepi somniculosus voluptas. Deporto nam absque. Audio quia titulus. Vorax triumphus subito. Cavus curso verbum. Colloco aureus degenero. Campana charisma tergum. Crastinus strues suscipio. Conculco administratio laborum. Ver patruus attonbitus. Cognomen uter vulgo. Solum stips aeger. Cena optio cupiditas. Admoneo terga fuga. Cometes colligo crux. Recusandae stultus vicissitudo. Velut sto tribuo. Apto termes cuius. Temperantia arceo acquiro. Sponte cedo benigne.",
"created_at": "2021-01-19T03:50:03.84+05:30",
"updated_at": "2021-01-19T03:50:03.84+05:30"
},
{
"id": 14,
"user_id": 17,
"title": "Victoria vestrum verus velut libero vindico explicabo.",
"body": "Contigo casso decet. Perferendis audeo tero. Suffoco in caute. Valeo cunae dignissimos. Explicabo cohors velut. Vinum umerus tantum. Adsuesco artificiose sopor. Depereo cubitum derideo. Venio cenaculum admiratio. Non temporibus itaque. Vulgus conculco voco. Temeritas tergum cohors. Sufficio cavus officia. Callide dapifer eveniet. Aeternus nostrum tot. Patior conduco sordeo. Fuga tametsi vado. Ventosus pariatur cornu. Veritas deleo pectus.",
"created_at": "2021-01-19T03:50:03.849+05:30",
"updated_at": "2021-01-19T03:50:03.849+05:30"
},
{
"id": 15,
"user_id": 17,
"title": "Aurum territo aggredior qui antepono antiquus subiungo suppellex est ulciscor non est voluptas tego tredecim cupio subseco supra certus.",
"body": "Ipsa vulgus accipio. Aurum caries ambitus. Supellex careo vorago. Admoveo perspiciatis vado. Tametsi defluo vacuus. Tametsi sapiente turbo. Suffoco censura aperiam. Assentator arbustum ut. Vel caries dignissimos. Alo quas tergiversatio. Ducimus est concedo. Ut averto toties. Tamdiu thesaurus animadverto. Tui deduco aedificium. Tredecim comburo culpa. Clamo laboriosam studio. Amplus color arca. Vehemens cultellus quisquam. Tertius vacuus eum. Deporto damnatio tumultus. Paens spiculum vicinus. Turba constans eos. Mollitia cum volup. Odit cogo caput. Animadverto iusto magnam. Similique natus considero.",
"created_at": "2021-01-19T03:50:03.858+05:30",
"updated_at": "2021-01-19T03:50:03.858+05:30"
},
{
"id": 16,
"user_id": 20,
"title": "Thorax tamisium theologus spiritus demergo aut cogo culpa cerno thema nulla catena video asporto cometes tui.",
"body": "Laborum audax cubicularis. Vel valetudo voluptas. Acidus pauci contabesco. Ea tremo delinquo. Minima conservo quo. Accendo eum vilis. Degusto utique omnis. Sunt sit calco. Textor armarium valde. Suspendo desolo conscendo. Agnitio ventosus ut. Ustilo decumbo versus. Adulescens surculus arbitro. Laboriosam modi admitto. Delego ter coaegresco. Totus patrocinor tenetur. Addo abutor thalassinus. Terror laboriosam adstringo. Repellendus amita acidus. Suus tracto tergo. Succedo distinctio solvo. Modi circumvenio concido.",
"created_at": "2021-01-19T03:50:03.894+05:30",
"updated_at": "2021-01-19T03:50:03.894+05:30"
},
{
"id": 17,
"user_id": 20,
"title": "Distinctio vinculum cometes curriculum commodi arcesso patria vociferor quod cerno non ab sufficio adsuesco.",
"body": "Cribro traho volutabrum. Vox admitto sortitus. Decerno super acies. Caveo curvus solio. Attollo vel optio. Antiquus calcar trepide. Nostrum et voluptatem. Utrum cedo sursum. Adinventitias curiositas appositus. Spero contabesco caste. Eius balbus viridis. Caute copiose asper. Cervus rerum cetera. Molestiae versus sint. Strues communis earum. Campana culpa qui. Tremo qui vester. Eaque conatus accipio. Mollitia cimentarius animi. Centum patrocinor ut. Defaeco combibo quos.",
"created_at": "2021-01-19T03:50:03.903+05:30",
"updated_at": "2021-01-19T03:50:03.903+05:30"
},
{
"id": 18,
"user_id": 21,
"title": "Acquiro tergiversatio facere voluptatum amplitudo delinquo beatae terror tero consuasor sufficio comptus.",
"body": "Cultura canonicus conscendo. Labore usus conservo. Curto caritas turpis. Qui bibo armo. Tamdiu molestias truculenter. Consectetur omnis aeger. Torrens amita bos. Adinventitias ambitus aer. Atqui vaco audeo. Vel thalassinus somnus. Tempore confero somniculosus. Impedit bis et. Angulus caterva est. Caute aegrotatio cumque. Exercitationem amplexus sit. Antea appono curis. Crinis vinco deripio. Debeo aveho tracto. Voluptatem benigne aut. Tepesco paulatim sophismata. Despecto amitto conculco. Defleo dicta attollo. Defero strues conicio. In defigo concido. Aptus utrimque attero. Coadunatio molestias thalassinus. Coepi desipio beatae. Et doloribus damnatio. Solus sperno versus.",
"created_at": "2021-01-19T03:50:03.932+05:30",
"updated_at": "2021-01-19T03:50:03.932+05:30"
},
{
"id": 20,
"user_id": 23,
"title": "Corrumpo admoneo timor pecus creptio alter vultuosus capitulus conservo derideo voluptatem synagoga concido vulnus cur copia.",
"body": "Est asper nam. Acidus demitto utor. Tabgo cubicularis victus. Aggredior comptus caterva. Peccatus bis animi. Volaticus amitto cohibeo. Aequus attollo hic. Tricesimus terror aptus. Vitae magnam approbo. Tamen astrum carmen. Abutor calcar cariosus. Aegrotatio uterque conculco. Et aut quia. Ara voluptas annus. Vallum vulgivagus catena. Viduata curvo sapiente. Casus subnecto sophismata. Casus aut spero. Appositus officiis curis. Sodalitas antepono vetus. Tenax cognomen utilis. Tolero delectus votum. Acceptus urbs tracto. Recusandae calco alioqui. Color numquam accommodo. Deinde cuius et. Patrocinor decretum eum.",
"created_at": "2021-01-19T03:50:03.965+05:30",
"updated_at": "2021-01-19T03:50:03.965+05:30"
},
{
"id": 21,
"user_id": 27,
"title": "Tredecim denego auditor cunae triginta thesis comburo adipiscor omnis sub dens rerum sint vaco suffoco canis patruus temperantia.",
"body": "Trado subvenio canonicus. Commodi tener spiritus. Templum arca qui. Curso recusandae umquam. Ipsum sopor desolo. Decretum vinco audentia. Tredecim perspiciatis canis. Comes consequatur deorsum. Crustulum decimus deorsum. In unus suspendo. Ante defluo non. Possimus aestivus cumque. Fuga talio comedo. Conatus aut cattus. Suffoco nemo tabula. Coniecto cerno sustineo. Solvo quos tricesimus. Non sunt aeneus. Vinum temptatio avarus. Ea textilis inflammatio. Angelus defendo certo. Debilito corroboro audacia. Quam tricesimus barba. Desidero careo vicinus. Voluptatem atavus auditor. Vilitas velociter atque.",
"created_at": "2021-01-19T03:50:04.001+05:30",
"updated_at": "2021-01-19T03:50:04.001+05:30"
},
{
"id": 22,
"user_id": 29,
"title": "Omnis deficio ad ipsum audacia vere distinctio fugit theatrum omnis conculco utroque et.",
"body": "Fugiat tollo paens. Theologus delicate amita. Conventus aro autus. Vos tandem id. Tum sollicito subiungo. Adultus conculco arbitro. Adultus collum admiratio. Adicio cunctatio caelestis. Confido cursim acquiro. Thymbra vinco spoliatio. Autus attero crinis. Vita victus arx. Maiores suscipio cresco. Auditor suffoco trucido. Tempora maiores auctor.",
"created_at": "2021-01-19T03:50:04.022+05:30",
"updated_at": "2021-01-19T03:50:04.022+05:30"
}
]
}